[
["index.html", "Health Data Science Chapter 1 Preface 1.1 Why read this book 1.2 Structure of the book 1.3 About the author 1.4 Acknowledgments", " Health Data Science Christine Choirat 2020-05-23 Chapter 1 Preface 1.1 Why read this book 1.2 Structure of the book 1.3 About the author 1.4 Acknowledgments "],
["intro.html", "Chapter 2 Introduction 2.1 Health Data Science 2.2 Analytics vs data science", " Chapter 2 Introduction 2.1 Health Data Science 2.2 Analytics vs data science You can label chapter and section titles using {#label} after them, e.g., we can reference Chapter 2. If you do not manually label them, there will be automatic labels anyway, e.g., Chapter ??. Figures and tables with captions will be placed in figure and table environments, respectively. par(mar = c(4, 4, .1, .1)) plot(pressure, type = &#39;b&#39;, pch = 19) Figure 2.1: Here is a nice figure! Reference a figure by its code chunk label with the fig: prefix, e.g., see Figure 2.1. Similarly, you can reference tables generated from knitr::kable(), e.g., see Table 2.1. knitr::kable( head(iris, 20), caption = &#39;Here is a nice table!&#39;, booktabs = TRUE ) Table 2.1: Here is a nice table! Sepal.Length Sepal.Width Petal.Length Petal.Width Species 5.1 3.5 1.4 0.2 setosa 4.9 3.0 1.4 0.2 setosa 4.7 3.2 1.3 0.2 setosa 4.6 3.1 1.5 0.2 setosa 5.0 3.6 1.4 0.2 setosa 5.4 3.9 1.7 0.4 setosa 4.6 3.4 1.4 0.3 setosa 5.0 3.4 1.5 0.2 setosa 4.4 2.9 1.4 0.2 setosa 4.9 3.1 1.5 0.1 setosa 5.4 3.7 1.5 0.2 setosa 4.8 3.4 1.6 0.2 setosa 4.8 3.0 1.4 0.1 setosa 4.3 3.0 1.1 0.1 setosa 5.8 4.0 1.2 0.2 setosa 5.7 4.4 1.5 0.4 setosa 5.4 3.9 1.3 0.4 setosa 5.1 3.5 1.4 0.3 setosa 5.7 3.8 1.7 0.3 setosa 5.1 3.8 1.5 0.3 setosa You can write citations, too. For example, we are using the bookdown package (Xie 2020) in this sample book, which was built on top of R Markdown and knitr (Xie 2015). References "],
["descriptive.html", "Chapter 3 Descriptive and diagnostic analytics 3.1 Introduction to health analytics 3.2 Descriptive statistics 3.3 Data sources, descriptive statistics 3.4 Data visualization", " Chapter 3 Descriptive and diagnostic analytics 3.1 Introduction to health analytics 3.2 Descriptive statistics 3.3 Data sources, descriptive statistics 3.4 Data visualization "],
["predictive.html", "Chapter 4 Predictive analytics 4.1 Regression 4.2 Classification 4.3 Clustering 4.4 Dimension reduction 4.5 Machine learning 4.6 Data visualization", " Chapter 4 Predictive analytics 4.1 Regression 4.2 Classification 4.3 Clustering 4.4 Dimension reduction 4.5 Machine learning 4.6 Data visualization "],
["prescriptive.html", "Chapter 5 Prescriptive analytics 5.1 Stochastic models of uncertainty 5.2 Stochastic models of uncertainty 5.3 Mathematical optimization under uncertainty", " Chapter 5 Prescriptive analytics 5.1 Stochastic models of uncertainty 5.2 Stochastic models of uncertainty 5.3 Mathematical optimization under uncertainty "],
["conclusion.html", "Chapter 6 Conclusion", " Chapter 6 Conclusion "],
["references.html", "References", " References "]
]
